{
  "applications": ["myApp", "storyboard"],
  "changelogDate": "20220730090243",
  "clientRootFolder": "storyboard",
  "databaseType": "sql",
  "dto": "no",
  "embedded": false,
  "entityTableName": "user_story",
  "fields": [
    {
      "fieldName": "status",
      "fieldType": "String",
      "fieldValidateRules": ["required"]
    },
    {
      "fieldName": "description",
      "fieldType": "String",
      "fieldValidateRules": ["required"]
    },
    {
      "fieldName": "caseID",
      "fieldType": "Integer"
    }
  ],
  "fluentMethods": true,
  "jpaMetamodelFiltering": false,
  "microserviceName": "storyboard",
  "name": "UserStory",
  "pagination": "pagination",
  "readOnly": false,
  "relationships": [
    {
      "otherEntityField": "caseID",
      "otherEntityName": "testCase",
      "otherEntityRelationshipName": "userStory",
      "relationshipName": "userstory",
      "relationshipType": "one-to-many"
    }
  ],
  "service": "serviceClass"
}
